{
  "full_name": "Daniel Roythorne",
  "email": "dan@droythorne.com",
  "project_name": "Example Package",
  "project_slug": "{{ cookiecutter.project_name.lower().replace(' ', '_').replace('-', '_') }}",
  "project_short_description": "Example package contains all the boilerplate you need to create a Python package.",
  "version": "0.0.1"
}
